<svg xmlns="http://www.w3.org/2000/svg" width="40.5" height="27" viewBox="0 0 40.5 27">
  <path id="Icon_awesome-keyboard" data-name="Icon awesome-keyboard" d="M37.125,31.5H3.375A3.375,3.375,0,0,1,0,28.125V7.875A3.375,3.375,0,0,1,3.375,4.5h33.75A3.375,3.375,0,0,1,40.5,7.875v20.25A3.375,3.375,0,0,1,37.125,31.5ZM9,12.656V9.844A.844.844,0,0,0,8.156,9H5.344a.844.844,0,0,0-.844.844v2.813a.844.844,0,0,0,.844.844H8.156A.844.844,0,0,0,9,12.656Zm6.75,0V9.844A.844.844,0,0,0,14.906,9H12.094a.844.844,0,0,0-.844.844v2.813a.844.844,0,0,0,.844.844h2.813A.844.844,0,0,0,15.75,12.656Zm6.75,0V9.844A.844.844,0,0,0,21.656,9H18.844A.844.844,0,0,0,18,9.844v2.813a.844.844,0,0,0,.844.844h2.813A.844.844,0,0,0,22.5,12.656Zm6.75,0V9.844A.844.844,0,0,0,28.406,9H25.594a.844.844,0,0,0-.844.844v2.813a.844.844,0,0,0,.844.844h2.813A.844.844,0,0,0,29.25,12.656Zm6.75,0V9.844A.844.844,0,0,0,35.156,9H32.344a.844.844,0,0,0-.844.844v2.813a.844.844,0,0,0,.844.844h2.813A.844.844,0,0,0,36,12.656Zm-23.625,6.75V16.594a.844.844,0,0,0-.844-.844H8.719a.844.844,0,0,0-.844.844v2.813a.844.844,0,0,0,.844.844h2.813A.844.844,0,0,0,12.375,19.406Zm6.75,0V16.594a.844.844,0,0,0-.844-.844H15.469a.844.844,0,0,0-.844.844v2.813a.844.844,0,0,0,.844.844h2.813A.844.844,0,0,0,19.125,19.406Zm6.75,0V16.594a.844.844,0,0,0-.844-.844H22.219a.844.844,0,0,0-.844.844v2.813a.844.844,0,0,0,.844.844h2.813A.844.844,0,0,0,25.875,19.406Zm6.75,0V16.594a.844.844,0,0,0-.844-.844H28.969a.844.844,0,0,0-.844.844v2.813a.844.844,0,0,0,.844.844h2.813A.844.844,0,0,0,32.625,19.406ZM9,26.156V23.344a.844.844,0,0,0-.844-.844H5.344a.844.844,0,0,0-.844.844v2.813A.844.844,0,0,0,5.344,27H8.156A.844.844,0,0,0,9,26.156Zm20.25,0V23.344a.844.844,0,0,0-.844-.844H12.094a.844.844,0,0,0-.844.844v2.813a.844.844,0,0,0,.844.844H28.406A.844.844,0,0,0,29.25,26.156Zm6.75,0V23.344a.844.844,0,0,0-.844-.844H32.344a.844.844,0,0,0-.844.844v2.813a.844.844,0,0,0,.844.844h2.813A.844.844,0,0,0,36,26.156Z" transform="translate(0 -4.5)" fill="#646464"/>
</svg>
