<svg width="496" height="98" viewBox="0 0 496 98" fill="none" xmlns="http://www.w3.org/2000/svg">
<path d="M18.2399 96.9743C13.5393 96.9081 9.02138 95.1473 5.51515 92.0158C4.16533 90.8388 3.06531 89.4026 2.2813 87.7924C1.49728 86.1822 1.0449 84.4306 0.950821 82.6422C0.89703 82.0662 1.01988 81.4876 1.30277 80.983C1.58566 80.4784 2.01517 80.0721 2.53461 79.8175C3.08513 79.5816 3.69874 79.538 4.27701 79.694C4.85528 79.85 5.36473 80.1964 5.72191 80.6772C7.54208 83.036 10.1274 84.6864 13.0332 85.3445C14.858 85.72 16.7469 85.64 18.5334 85.1117C20.32 84.5835 21.949 83.6233 23.2761 82.3158C24.4407 81.266 25.4233 80.0308 26.1849 78.6602L26.2432 78.7056C29.4476 74.7711 31.2902 69.9036 31.4941 64.8335C31.6981 59.7633 30.2529 54.7636 27.3749 50.5845L27.3394 50.6169C26.5266 48.938 25.5454 47.3461 24.4109 45.8655C20.0333 40.5058 17.9174 33.6509 18.5121 26.7563C18.7521 22.0414 20.213 17.4695 22.7521 13.4894C25.2913 9.50935 28.8213 6.25748 32.9958 4.05262C37.2635 1.7198 42.0013 0.378619 46.8585 0.12867C52.8884 -0.39724 58.9498 0.695137 64.4167 3.29308C68.1948 5.08408 71.5252 7.6969 74.164 10.9402C76.8028 14.1834 78.683 17.9751 79.6682 22.0385C80.6534 26.1019 80.718 30.3342 79.8576 34.4259C78.9971 38.5175 77.2335 42.3651 74.6951 45.6876C73.6058 47.2649 72.6496 48.9198 71.709 50.5877C69.0202 54.5292 67.5967 59.197 67.6284 63.9682C67.6602 68.7394 69.1455 73.3876 71.8866 77.293H71.8408C72.7217 79.2593 74.0366 81.0005 75.6862 82.3865C77.3359 83.7725 79.2777 84.7673 81.3664 85.296C83.5371 85.7283 85.7857 85.5383 87.8531 84.7479C89.9204 83.9576 91.7223 82.5992 93.0511 80.8291C93.3931 80.3037 93.906 79.9122 94.5031 79.7208C95.1001 79.5294 95.7453 79.5497 96.3291 79.7784C96.9082 80.0519 97.3788 80.5116 97.6659 81.084C97.953 81.6565 98.04 82.3088 97.9129 82.9365C97.7433 85.8133 96.6039 88.5479 94.6806 90.6941C91.4508 94.2526 86.9874 96.4484 82.1974 96.8355C81.3476 96.9351 80.493 96.9869 79.6374 96.9905C74.1096 96.853 68.7952 94.8296 64.5753 91.2563C60.2383 88.015 56.4718 84.0735 53.4304 79.5941C53.0534 78.8682 52.4841 78.2599 51.785 77.8352C51.086 77.4105 50.2838 77.1857 49.4658 77.1857C48.6478 77.1857 47.8456 77.4105 47.1465 77.8352C46.4475 78.2599 45.8782 78.8682 45.5012 79.5941C41.7596 85.1243 36.9185 89.8238 31.2795 93.3992C27.7662 95.7465 23.6355 96.9996 19.4102 97C19.0158 97.0129 18.6256 97.0045 18.2399 96.9743ZM42.2594 35.1795C42.8209 35.2254 43.3818 35.0893 43.8598 34.7912C44.3378 34.4932 44.7075 34.049 44.9133 33.5247C45.4177 32.4081 45.6704 31.1944 45.6535 29.9693C45.7802 28.5847 45.4567 27.1958 44.7318 26.0094C44.5243 25.5199 44.1764 25.1029 43.732 24.8111C43.2875 24.5193 42.7666 24.3658 42.235 24.37C41.7033 24.3741 41.1849 24.5357 40.7451 24.8344C40.3053 25.1331 39.9641 25.5558 39.7642 26.0485C39.1213 27.1904 38.7679 28.4725 38.7352 29.7826C38.7025 31.0927 38.9912 32.3908 39.5764 33.5634C39.7973 34.0761 40.1723 34.5075 40.6496 34.7972C41.127 35.0868 41.6829 35.2203 42.2397 35.1795H42.2594ZM59.5517 33.0623C59.8508 32.207 60.0351 31.3158 60.0985 30.412C60.2891 28.7059 59.8394 26.9898 58.8375 25.5959C58.6567 25.303 58.4179 25.0501 58.136 24.8525C57.5812 24.4662 56.8969 24.3145 56.231 24.4307C55.5651 24.547 54.972 24.9218 54.5809 25.4732C53.8141 26.5688 53.3357 27.8401 53.1905 29.1695C53.0453 30.4989 53.2377 31.8431 53.75 33.0784C53.9135 33.6953 54.2807 34.2391 54.7916 34.6216C55.3026 35.004 55.9276 35.2031 56.5656 35.1862H56.5845C57.2469 35.2339 57.9055 35.0495 58.4469 34.665C58.9883 34.2805 59.3786 33.7195 59.5517 33.0784V33.0623ZM20.9687 76.294C14.5824 74.8141 9.01304 70.9275 5.42125 65.4434C3.79784 63.0388 2.69969 60.3187 2.19844 57.461C1.69718 54.6033 1.80361 51.6723 2.51172 48.8587C2.89514 47.1423 3.72888 45.5586 4.92646 44.2707C6.12404 42.9827 7.64264 42.0367 9.32665 41.5296C11.0107 41.0226 12.7993 40.973 14.5089 41.3856C16.2185 41.7982 17.7877 42.6583 19.0551 43.8777C19.4909 44.2608 19.7984 44.7685 19.9365 45.3321C20.0747 45.8956 20.0369 46.4879 19.8276 47.0291C19.663 47.5658 19.3115 48.0259 18.8373 48.3264C18.3631 48.6269 17.7973 48.7479 17.2416 48.6677C16.2408 48.5251 15.2209 48.7102 14.3337 49.1948C13.4465 49.6795 12.7398 50.4379 12.319 51.3571C11.7771 52.3374 11.5296 53.4533 11.6065 54.5708C11.6833 55.6883 12.0805 56.7598 12.7515 57.6567C13.4072 58.6096 14.2602 59.4109 15.2522 60.0059C16.2443 60.6009 17.3524 60.9758 18.5019 61.1056C19.8326 61.355 21.2021 61.3087 22.513 60.9703C23.824 60.6318 25.0449 60.0094 26.0886 59.147C26.8437 58.5397 27.4559 57.774 27.8823 56.9039C29.0848 60.2612 29.4036 63.8713 28.8087 67.3875C28.2138 70.9037 26.7251 74.2076 24.4851 76.9825C23.2988 76.808 22.1225 76.6108 20.9719 76.3102L20.9687 76.294ZM71.1203 57.0913C71.1494 57.1365 71.1623 57.1913 71.1882 57.2333C72.0483 58.4793 73.2016 59.4945 74.5467 60.1894C75.8918 60.8843 77.3873 61.2375 78.9012 61.218C80.415 61.1986 81.9012 60.807 83.228 60.0778C84.5547 59.3485 85.6814 58.3037 86.5092 57.036C86.8895 56.3969 87.14 55.6893 87.2462 54.9531C87.3525 54.217 87.3127 53.467 87.1286 52.7463C86.9446 52.0257 86.62 51.3484 86.1738 50.7534C85.7275 50.1584 85.1679 49.6574 84.5277 49.2789C84.1619 49.064 83.7742 48.8895 83.3708 48.7585C82.7633 48.6386 82.1415 48.6069 81.525 48.6646C80.9985 48.7067 80.4728 48.5753 80.028 48.2905C79.5833 48.0057 79.244 47.5829 79.0621 47.0871C78.8235 46.5882 78.7499 46.0266 78.8522 45.4832C78.9545 44.9398 79.2274 44.443 79.6311 44.0651C81.0675 42.5332 82.974 41.5244 85.0485 41.1982C87.7068 40.7938 90.4165 41.4618 92.5823 43.0554C94.7481 44.649 96.1926 47.0373 96.5974 49.6956C96.6265 49.8895 96.649 50.0837 96.6684 50.2744C97.329 54.3648 96.8115 58.5584 95.1762 62.3654C93.5409 66.1724 90.8555 69.4354 87.434 71.7723C83.668 74.5995 79.2132 76.3673 74.5333 76.8922C72.3388 74.1515 70.8752 70.8994 70.2783 67.4396C69.6814 63.9797 69.971 60.425 71.1203 57.1075V57.0913Z" fill="#E33E5C"/>
<path d="M189.478 41.4214C192.481 40.4922 195.054 38.522 196.734 35.8651C199.161 32.4291 200.393 28.2907 200.238 24.0867C200.391 22.0734 200.008 20.0555 199.127 18.2385C198.247 16.4216 196.9 14.8705 195.225 13.7434C190.494 11.244 185.16 10.1145 179.823 10.482C171.007 10.1183 162.258 12.1644 154.517 16.4003C147.947 20.348 144.662 24.5844 144.662 29.1096C144.628 30.1896 144.851 31.2621 145.313 32.2389C145.775 33.2156 146.463 34.0685 147.319 34.7273C148.879 36.0246 150.687 36.9903 152.633 37.5653C152.364 40.7796 151.239 43.8633 149.375 46.4961C146.011 45.8069 142.96 44.0483 140.677 41.4828C139.332 40.0325 138.288 38.3305 137.604 36.4749C136.92 34.6194 136.61 32.6468 136.691 30.6708C136.691 22.7798 141.08 16.2365 149.857 11.0412C160.31 5.4433 172.074 2.75316 183.922 3.2514C192.703 2.84407 201.452 4.58603 209.408 8.32609C212.326 9.72324 214.772 11.9423 216.446 14.7107C218.12 17.479 218.948 20.676 218.83 23.9089C218.898 26.4554 218.427 28.9875 217.449 31.3397C216.471 33.6919 215.008 35.8111 213.154 37.5588C209.027 41.3793 204.071 44.1907 198.674 45.772C203.947 46.3722 208.87 48.7089 212.669 52.4144C218.496 50.8085 224.504 49.9558 230.547 49.877L236.465 50.2391C236.625 50.7885 236.706 51.3575 236.708 51.9295C236.813 54.2066 236.399 56.4777 235.499 58.5719C232.614 58.0255 229.679 57.7828 226.743 57.8478C223.413 57.8013 220.095 58.249 216.897 59.1763C217.959 62.2446 218.49 65.4713 218.468 68.718C218.743 76.183 216.1 83.4615 211.099 89.0102C209.018 91.476 206.431 93.4648 203.514 94.8413C200.596 96.2179 197.416 96.9499 194.19 96.9875C190.198 97.1169 186.308 95.7115 183.32 93.0603C181.815 91.5964 180.645 89.8234 179.892 87.8635C179.139 85.9037 178.82 83.8037 178.957 81.7085C179.053 76.4943 181.001 71.4843 184.452 67.5738C188.113 63.1067 192.711 59.4985 197.921 57.0042C197.206 54.6036 195.716 52.5078 193.683 51.0454C191.649 49.583 189.188 48.8367 186.685 48.9235H185.838C185.369 46.5597 185.494 44.1165 186.2 41.8125C187.305 41.817 188.405 41.6856 189.478 41.4214ZM166.044 28.2563C166.111 27.1033 165.925 25.9494 165.501 24.8754C164.839 23.7411 164.048 22.6869 163.144 21.7336L163.264 20.8867C168.152 18.2408 173.658 16.9507 179.212 17.1502C181.084 17.0749 182.957 17.2786 184.768 17.7546C185.292 19.412 185.498 21.1537 185.373 22.8875C183.921 32.7113 181.842 42.4322 179.151 51.9909C175.847 64.3085 173.406 76.8414 171.846 89.4983C166.689 90.9216 161.357 91.6125 156.008 91.5508C154.988 91.5976 153.968 91.4753 152.989 91.1888C154.554 80.4981 156.838 69.9251 159.825 59.5416C163.971 43.5159 166.044 33.0875 166.044 28.2563ZM191.291 86.7186C193.465 86.7186 195.398 84.7253 197.09 80.7388C198.836 76.4666 199.7 71.8848 199.627 67.2699L199.508 65.2174C196.219 66.5643 193.299 68.6763 190.991 71.3782C188.471 73.9256 187.022 77.3409 186.94 80.9231C186.871 81.7133 186.958 82.5094 187.196 83.2659C187.435 84.0225 187.82 84.7245 188.33 85.3319C188.705 85.7512 189.16 86.0902 189.669 86.3286C190.178 86.5669 190.73 86.6996 191.291 86.7186ZM228.98 81.7667C229.399 75.7734 230.452 69.8414 232.121 64.07C233.582 59.0499 234.632 53.9196 235.263 48.7296C234.714 45.7918 233.181 43.1286 230.916 41.179L231.035 39.6081C238.17 38.3416 245.411 37.7755 252.656 37.9176C253.158 39.7654 253.362 41.6814 253.26 43.5935C252.686 49.5255 251.553 55.3901 249.876 61.1092C248.281 66.5613 247.148 72.1385 246.492 77.7813C246.492 79.9556 247.297 81.0427 248.907 81.0427C251.769 80.882 254.547 80.0099 256.987 78.5053C257.308 76.566 258.113 72.8618 259.402 67.3928C261.738 58.3335 263.193 49.0699 263.749 39.7309C268.694 38.3288 273.838 37.7575 278.97 38.0404H281.265C280.747 45.5074 279.621 52.9199 277.9 60.2042C276.404 66.5774 275.275 73.031 274.516 79.5332C274.516 81.4252 274.919 82.3711 275.725 82.3711C278.103 81.6113 280.407 80.6377 282.609 79.4621L284.904 83.3408C277.737 89.299 271.456 92.2781 266.06 92.2781C263.679 92.3435 261.35 91.574 259.476 90.1028C258.599 89.4205 257.872 88.564 257.342 87.5872C256.812 86.6103 256.49 85.5343 256.396 84.4269C249.875 89.7407 243.957 92.3977 238.641 92.3977C237.354 92.4408 236.071 92.216 234.876 91.7374C233.68 91.2589 232.597 90.5372 231.695 89.6179C230.744 88.5546 230.015 87.3129 229.549 85.965C229.082 84.6171 228.889 83.19 228.98 81.7667ZM290.716 91.1888H289.869C289.653 89.7298 289.571 88.2539 289.627 86.78C290.276 80.5308 291.366 74.3353 292.888 68.2396C294.283 62.5442 295.372 56.7782 296.15 50.9663C295.941 47.9348 294.755 45.0526 292.769 42.7531L291.683 41.305L291.802 39.7341C298.668 38.2789 305.685 37.67 312.699 37.9208C313.792 40.7267 314.285 43.7304 314.147 46.7385C315.718 44.5544 317.588 42.6023 319.703 40.9398C322.063 38.7106 325.157 37.4217 328.401 37.3164C332.75 37.3164 334.924 41.1014 334.924 48.6714C334.521 49.1541 333.982 49.7779 333.308 50.5429C332.06 51.757 330.682 52.8301 329.2 53.7428C327.409 55.0026 325.37 55.8674 323.22 56.2802C322.454 55.2455 321.761 54.159 321.145 53.0285C319.852 50.8543 318.882 49.7671 318.236 49.7671C316.19 50.5139 314.364 51.7593 312.922 53.3905C310.188 64.0073 308.331 74.831 307.372 85.7521C307.372 87.5234 307.412 88.7721 307.492 89.4983C302.02 90.9442 296.353 91.5147 290.703 91.1888H290.716ZM331.772 69.9301C331.544 65.5371 332.237 61.1449 333.808 57.036C335.379 52.9271 337.793 49.1926 340.894 46.0726C343.594 43.3126 346.816 41.1171 350.372 39.6139C353.929 38.1106 357.749 37.3297 361.61 37.3164C365.797 37.1433 369.922 38.3767 373.327 40.8202C374.796 41.8915 375.983 43.3051 376.782 44.9386C377.582 46.572 377.972 48.3759 377.916 50.1938C378.035 53.7115 376.995 57.1708 374.956 60.0393C373.069 62.6162 370.609 64.7196 367.77 66.1839C362.836 68.7415 357.541 70.5333 352.068 71.4978L349.159 71.8598C349.723 79.4298 352.824 83.2148 358.461 83.2148C360.594 83.1699 362.693 82.6765 364.622 81.7667C366.428 81.0117 368.133 80.0344 369.697 78.8577L371.51 77.4096L374.419 81.2883C373.288 82.6241 371.984 83.8025 370.54 84.7921C368.804 86.1106 366.989 87.3207 365.104 88.4155C360.408 91.0039 355.125 92.3396 349.763 92.2943C347.26 92.4011 344.766 91.9217 342.48 90.8942C340.194 89.8667 338.18 88.3195 336.598 86.3759C333.124 81.6232 331.417 75.8067 331.772 69.9301ZM349.046 65.9576C352.815 65.413 356.276 63.5716 358.833 60.7504C361.33 57.7857 362.623 53.9919 362.457 50.1195C362.457 45.771 361.164 43.5967 358.578 43.5967C355.518 43.5967 353.163 46.1933 351.512 51.3865C349.946 56.0879 349.114 61.0027 349.046 65.9576ZM416.449 40.8331C416.985 39.828 417.43 38.7764 417.777 37.6913C423.005 37.9897 428.15 39.1303 433.014 41.0691C430.951 47.9409 429.332 54.9381 428.166 62.0175C427.192 67.1598 426.587 72.3652 426.355 77.5938C426.355 80.6947 426.679 82.2451 427.325 82.2451C429.18 81.689 430.963 80.9188 432.639 79.9502L434.087 79.2261L436.246 83.4572C435.522 84.1037 434.576 84.9085 433.408 85.8717C431.343 87.386 429.138 88.701 426.824 89.7989C424.16 91.2969 421.18 92.1452 418.126 92.2748C417.112 92.4042 416.081 92.3316 415.095 92.0613C414.109 91.791 413.185 91.3283 412.379 90.6998C411.572 90.0714 410.897 89.2896 410.393 88.3994C409.89 87.5092 409.567 86.5283 409.444 85.5129C405.746 89.3551 400.8 91.7536 395.494 92.2781C393.493 92.3007 391.513 91.8789 389.695 91.0433C387.877 90.2077 386.268 88.979 384.982 87.4458C381.76 83.0572 380.237 77.6502 380.693 72.225C380.205 63.2304 382.526 54.3068 387.335 46.69C389.01 43.9037 391.359 41.5842 394.167 39.9459C396.975 38.3076 400.15 37.4033 403.4 37.3164C407.98 37.3327 412.478 38.539 416.452 40.817L416.449 40.8331ZM402.679 82.0091C405.025 81.8709 407.286 81.0756 409.202 79.7142C409.776 68.2971 411.682 56.9862 414.881 46.0112C412.952 45.0828 410.858 44.5487 408.72 44.4403C405.822 44.4403 403.344 47.2794 401.286 52.9574C399.173 58.9911 398.13 65.3476 398.206 71.7402C398.208 78.5862 399.699 82.0091 402.679 82.0091ZM439.401 81.7667C439.821 75.7734 440.874 69.8414 442.543 64.07C444.003 59.0499 445.054 53.9196 445.684 48.7296C445.136 45.7918 443.602 43.1286 441.337 41.179L441.457 39.6081C448.591 38.3416 455.833 37.7755 463.077 37.9176C463.579 39.7654 463.783 41.6814 463.682 43.5935C463.107 49.5255 461.974 55.3901 460.298 61.1092C458.703 66.5615 457.572 72.1387 456.917 77.7813C456.917 79.9556 457.721 81.0427 459.331 81.0427C462.194 80.882 464.971 80.0099 467.412 78.5053C467.733 76.566 468.538 72.8618 469.826 67.3928C472.162 58.3335 473.618 49.0699 474.174 39.7309C479.119 38.3288 484.262 37.7575 489.395 38.0404H491.69C491.166 45.509 490.036 52.9225 488.309 60.2074C486.818 66.5799 485.694 73.0323 484.941 79.5332C484.941 81.4252 485.343 82.3711 486.149 82.3711C488.527 81.6113 490.832 80.6376 493.034 79.4621L495.329 83.3408C488.162 89.299 481.881 92.2781 476.485 92.2781C474.104 92.3435 471.774 91.574 469.901 90.1028C469.023 89.4205 468.297 88.564 467.767 87.5872C467.236 86.6103 466.914 85.5343 466.82 84.4269C460.298 89.7407 454.379 92.3977 449.065 92.3977C447.778 92.4408 446.496 92.216 445.3 91.7374C444.105 91.2589 443.021 90.5372 442.119 89.6179C441.168 88.5548 440.438 87.3132 439.971 85.9654C439.505 84.6175 439.311 83.1902 439.401 81.7667Z" fill="#E33E5C"/>
</svg>
